<svg width="119" height="134" viewBox="0 0 119 134" fill="none" xmlns="http://www.w3.org/2000/svg">
    <path d="M31 115.474L57 134V38.5263L31 20V115.474Z" fill="#F0303C"/>
    <path d="M0 93.477L26 112V57.5361L0 39V93.477Z" fill="#F0303C"/>
    <path d="M93 76.477L119 95V40.523L93 22V76.477Z" fill="#F0303C"/>
    <path d="M62 95.4627L88 114V18.5373L62 0V95.4627Z" fill="#F0303C"/>
</svg>
