<svg width="37" height="37" viewBox="0 0 37 37" xmlns="http://www.w3.org/2000/svg">
<path d="M29.2913 9.88176L27.1176 7.70801L18.4997 16.3259L9.88176 7.70801L7.70801 9.88176L16.3259 18.4997L7.70801 27.1176L9.88176 29.2913L18.4997 20.6734L27.1176 29.2913L29.2913 27.1176L20.6734 18.4997L29.2913 9.88176Z"/>
</svg>
