<svg width="17" height="21" viewBox="0 0 17 21" xmlns="http://www.w3.org/2000/svg">
<path d="M13 7.125V18.375H4V7.125H13ZM11.3125 0.375H5.6875L4.5625 1.5H0.625V3.75H16.375V1.5H12.4375L11.3125 0.375ZM15.25 4.875H1.75V18.375C1.75 19.6125 2.7625 20.625 4 20.625H13C14.2375 20.625 15.25 19.6125 15.25 18.375V4.875Z"/>
</svg>
