<svg width="27" height="27" viewBox="0 0 27 27"  xmlns="http://www.w3.org/2000/svg">
<path fill-rule="evenodd" clip-rule="evenodd" d="M1.8945 1.8945C0 3.789 0 6.8391 0 12.9375V14.0625C0 20.16 0 23.211 1.8945 25.1055C3.789 27 6.8391 27 12.9375 27H14.0625C20.16 27 23.211 27 25.1055 25.1055C27 23.211 27 20.1609 27 14.0625V12.9375C27 6.84 27 3.789 25.1055 1.8945C23.211 0 20.1609 0 14.0625 0H12.9375C6.84 0 3.789 0 1.8945 1.8945ZM5.34419 8.4375H7.31249C7.81559 8.4375 8.00459 8.658 8.19359 9.2034C9.15659 12.0078 10.7802 14.4594 11.4471 14.4594C11.6982 14.4594 11.8125 14.3442 11.8125 13.7079V10.809C11.7674 9.98377 11.4791 9.62679 11.2656 9.3624C11.1337 9.19918 11.0304 9.07125 11.0304 8.8902C11.0304 8.6697 11.2185 8.4375 11.5308 8.4375H14.625C15.0426 8.4375 15.1875 8.6607 15.1875 9.1611V13.0617C15.1875 13.4784 15.3684 13.6251 15.4935 13.6251C15.7437 13.6251 15.9525 13.4784 16.4115 13.0194C17.8299 11.4345 18.8307 8.9946 18.8307 8.9946C18.9558 8.7021 19.1871 8.4375 19.6875 8.4375H21.6558C22.2516 8.4375 22.3776 8.7444 22.2516 9.1611C22.0014 10.3086 19.6029 13.6872 19.6029 13.6872C19.3941 14.0211 19.3104 14.1876 19.6029 14.5629C19.7061 14.7075 19.9263 14.9234 20.1781 15.1701C20.4356 15.4226 20.7262 15.7073 20.9583 15.9813C21.8043 16.9326 22.4415 17.7354 22.6188 18.288C22.7817 18.8433 22.5 19.125 21.9375 19.125H19.9683C19.4411 19.125 19.1759 18.8298 18.6022 18.1913C18.3591 17.9207 18.0607 17.5884 17.6634 17.1909C16.4943 16.065 15.9948 15.9192 15.7023 15.9192C15.3063 15.9192 15.1875 16.0317 15.1875 16.5942V18.36C15.1875 18.8433 15.0327 19.125 13.7808 19.125C11.6955 19.125 9.40319 17.8587 7.77689 15.5223C5.33609 12.1023 4.66919 9.5157 4.66919 8.9946C4.66919 8.7021 4.78169 8.4375 5.34419 8.4375Z" />
</svg>
