<svg width="93" height="26" viewBox="0 0 93 26" fill="none" xmlns="http://www.w3.org/2000/svg">
<g clip-path="url(#clip0_257_1547)">
<path fill-rule="evenodd" clip-rule="evenodd" d="M62.5078 26H69.0856L71.9117 17.8216L74.8502 15.3147L77.1648 22.7109C77.8806 24.997 78.6175 26 80.2246 26H85.2607L80.0654 11.4866L92.5598 0H84.4908L76.9063 8.17861C76.0228 9.1307 75.129 10.0678 74.2329 11.1871H74.1565L77.9437 0H71.3653L62.5078 26Z" fill="white"/>
<path fill-rule="evenodd" clip-rule="evenodd" d="M62.2247 0.00103019C64.2874 0.00137214 66.2883 0.00170379 67.964 0.00185366L66.6062 4.29456C66.1795 5.64329 65.0964 6.28853 62.7091 6.28853C58.5642 6.28853 52.431 6.28779 48.2857 6.28705L49.6434 1.99435C50.07 0.644887 51.1529 0 53.5403 0C56.0096 0 59.1846 0.000526292 62.2247 0.00103019ZM50.1925 9.85586C54.3373 9.85586 60.4708 9.8566 64.6162 9.85771L63.2585 14.1503C62.8317 15.4993 61.7486 16.1442 59.3613 16.1442C55.2163 16.1442 49.0831 16.1435 44.9378 16.1423L46.2955 11.8502C46.7221 10.5009 47.8051 9.85586 50.1925 9.85586ZM61.1037 19.713C56.9587 19.7122 50.8255 19.7115 46.6805 19.7115C44.2928 19.7115 43.2101 20.3567 42.7835 21.705L41.4258 25.9983C45.5711 25.9987 51.7043 26 55.8494 26C58.2366 26 59.3197 25.3546 59.7463 24.0055L61.1037 19.713Z" fill="white"/>
<path fill-rule="evenodd" clip-rule="evenodd" d="M32.6817 6.26229L36.2118 6.26377C39.2195 6.26451 38.533 10.0091 37.0108 13.6586C35.6695 16.8752 33.2923 19.7138 30.4564 19.7134L24.5715 19.7127C22.2242 19.7127 21.1419 20.3579 20.6854 21.7062L19.2324 25.9993L23.5478 26L27.7661 25.965C31.507 25.9342 34.5696 25.6647 38.151 22.4561C41.9359 19.0667 46.3488 10.2615 45.5928 5.16868C45.0005 1.17776 42.8493 0.00185357 37.64 0.00148285L28.1473 0L22.6201 16.1257L26.1319 16.1302C28.222 16.1325 29.271 16.1587 30.3828 13.1763L32.6817 6.26229Z" fill="white"/>
<path fill-rule="evenodd" clip-rule="evenodd" d="M16.454 6.2847L13.799 6.28544C8.48012 6.28804 3.9224 19.7157 10.2113 19.7134L14.2521 19.7127C16.5825 19.7127 18.3126 20.561 17.5466 22.8486L16.4909 25.9993L12.2054 26L8.71945 25.965C4.25992 25.9205 1.38217 23.729 0.345997 20.4015C-0.775298 16.8006 0.807773 9.29011 5.40244 4.47896C8.06841 1.68786 11.7613 0.00185357 16.4961 0.00148285L25.2436 0L23.8762 3.93512C22.9927 6.47765 21.1877 6.28804 20.1576 6.28767L16.454 6.2847Z" fill="white"/>
</g>
<defs>
<clipPath id="clip0_257_1547">
<rect width="92.56" height="26" fill="white"/>
</clipPath>
</defs>
</svg>
